{
  "definitions": {
    "Lot": {
      "properties": {
        "simultaneousSupply": {
          "title": "Simultaneous Supply",
          "description": "If this lot can be simultaneously supplied",
          "type": [
            "boolean",
            "null"
          ]
        },
        "openContractType": {
          "title": "Open Contract Type",
          "description": "If this lot is open in amount or quantity",
          "type": [
            "string",
            "null"
          ]
        },
        "statusDetails": {
          "title": "Lot Status Details",
          "description": "The local name of the status of this lot",
          "type": [
            "string",
            "null"
          ]
        },
        "minValue": {
          "title": "Minimum Lot value",
          "$ref": "#/definitions/Value",
          "description": "The minimum estimated value of this lot."
        },
        "deliveryAddress": {
          "title": "Lot Delivery Address",
          "$ref": "#/definitions/Address",
          "description": "The address where this lot must be delivered."
        },
        "attributes": {
          "description": "The attributes of the lot.",
          "items": {
            "$ref": "#/definitions/Attribute"
          },
          "minItems": 1,
          "title": "Attributes",
          "type": "array",
          "uniqueItems": true
        }
      }
    }
  }
}
